Circuitos/TL1/scripts_y_recursos/datos/SDS00006.CSV

Record Length,20480,,Source,CH1,CH2
Sample Interval,CH1:0.0000002000000 CH2:0.0000002000000,,Second,Volt,Volt
Vertical Units,CH1:V CH2:V,,-0.00204799999,0.08800,-0.27200
Vertical Scale,CH1:0.20 CH2:0.20,,-0.00204779999,0.08800,-0.27200
Vertical Offset,CH1:0.00 CH2:0.00,,-0.00204759999,0.08800,-0.28000
Horizontal Units,s,,-0.00204739999,0.08800,-0.27200
Horizontal Scale,0.0001000000,,-0.00204719999,0.08800,-0.27200
Model Number,SDS1072CML+,,-0.00204699999,0.08800,-0.27200
Serial Number,SDS10BA3163350,,-0.00204679999,0.08800,-0.27200
Software Version,6.01.01.16,,-0.00204659998,0.08800,-0.27200
,,,-0.00204639998,0.08800,-0.27200
,,,-0.00204619998,0.08800,-0.27200
,,,-0.00204599998,0.08800,-0.27200
,,,-0.00204579998,0.08800,-0.27200
,,,-0.00204559998,0.09600,-0.27200
,,,-0.00204539998,0.08800,-0.27200
,,,-0.00204519997,0.09600,-0.28000
,,,-0.00204499997,0.10400,-0.27200
,,,-0.00204479997,0.10400,-0.28000
,,,-0.00204459997,0.09600,-0.27200
,,,-0.00204439997,0.08800,-0.27200
,,,-0.00204419997,0.08800,-0.27200
,,,-0.00204399996,0.10400,-0.27200
,,,-0.00204379996,0.08800,-0.28000
,,,-0.00204359996,0.10400,-0.27200
,,,-0.00204339996,0.09600,-0.27200
,,,-0.00204319996,0.08800,-0.27200
,,,-0.00204299996,0.10400,-0.27200
,,,-0.00204279996,0.09600,-0.27200
,,,-0.00204259995,0.09600,-0.27200
,,,-0.00204239995,0.10400,-0.27200
,,,-0.00204219995,0.10400,-0.27200
,,,-0.00204199995,0.09600,-0.28000
,,,-0.00204179995,0.09600,-0.26400
,,,-0.00204159995,0.09600,-0.27200
,,,-0.00204139994,0.10400,-0.27200
,,,-0.00204119994,0.10400,-0.27200
,,,-0.00204099994,0.10400,-0.28000
,,,-0.00204079994,0.10400,-0.27200
,,,-0.00204059994,0.10400,-0.28000
,,,-0.00204039994,0.10400,-0.27200
,,,-0.00204019994,0.10400,-0.27200
,,,-0.00203999993,0.10400,-0.27200
,,,-0.00203979993,0.10400,-0.27200
,,,-0.00203959993,0.11200,-0.27200
,,,-0.00203939993,0.10400,-0.27200
,,,-0.00203919993,0.10400,-0.27200
,,,-0.00203899993,0.10400,-0.28000
,,,-0.00203879992,0.10400,-0.28000
,,,-0.00203859992,0.10400,-0.28000
,,,-0.00203839992,0.10400,-0.28000
,,,-0.00203819992,0.11200,-0.27200
,,,-0.00203799992,0.10400,-0.27200
,,,-0.00203779992,0.11200,-0.28000
,,,-0.00203759992,0.10400,-0.27200
,,,-0.00203739991,0.10400,-0.27200
,,,-0.00203719991,0.10400,-0.27200
,,,-0.00203699991,0.10400,-0.27200
,,,-0.00203679991,0.10400,-0.28000
,,,-0.00203659991,0.10400,-0.28000
,,,-0.00203640014,0.10400,-0.28000
,,,-0.00203620014,0.11200,-0.28000
,,,-0.00203600014,0.11200,-0.28000
,,,-0.00203580013,0.11200,-0.28000
,,,-0.00203560013,0.11200,-0.28000
,,,-0.00203540013,0.10400,-0.28000
,,,-0.00203520013,0.11200,-0.28000
,,,-0.00203500013,0.11200,-0.28000
,,,-0.00203480013,0.10400,-0.28000
,,,-0.00203460013,0.11200,-0.27200
,,,-0.00203440012,0.10400,-0.28000
,,,-0.00203420012,0.10400,-0.28000
,,,-0.00203400012,0.11200,-0.27200
,,,-0.00203380012,0.11200,-0.27200
,,,-0.00203360012,0.11200,-0.28000
,,,-0.00203340012,0.11200,-0.27200
,,,-0.00203320011,0.11200,-0.27200
,,,-0.00203300011,0.11200,-0.27200
,,,-0.00203280011,0.11200,-0.27200
,,,-0.00203260011,0.10400,-0.28000
,,,-0.00203240011,0.11200,-0.27200
,,,-0.00203220011,0.11200,-0.28000
,,,-0.00203200011,0.10400,-0.27200
,,,-0.00203180010,0.11200,-0.28000
,,,-0.00203160010,0.10400,-0.27200
,,,-0.00203140010,0.11200,-0.28000
,,,-0.00203120010,0.11200,-0.28000
,,,-0.00203100010,0.11200,-0.28000
,,,-0.00203080010,0.11200,-0.27200
,,,-0.00203060010,0.11200,-0.28000
,,,-0.00203040009,0.10400,-0.27200
,,,-0.00203020009,0.11200,-0.28000
,,,-0.00203000009,0.11200,-0.27200
,,,-0.00202980009,0.11200,-0.28000
,,,-0.00202960009,0.11200,-0.28000
,,,-0.00202940009,0.11200,-0.28000
,,,-0.00202920008,0.11200,-0.28000
,,,-0.00202900008,0.11200,-0.28000
,,,-0.00202880008,0.11200,-0.28000
,,,-0.00202860008,0.11200,-0.28000
,,,-0.00202840008,0.11200,-0.28000
,,,-0.00202820008,0.11200,-0.28000
,,,-0.00202800008,0.11200,-0.28000
,,,-0.00202780007,0.11200,-0.28000
,,,-0.00202760007,0.12000,-0.28000
,,,-0.00202740007,0.11200,-0.28000
,,,-0.00202720007,0.11200,-0.28000
,,,-0.00202700007,0.11200,-0.28000
,,,-0.00202680007,0.11200,-0.28000
,,,-0.00202660006,0.11200,-0.28000
,,,-0.00202640006,0.12000,-0.28000
,,,-0.00202620006,0.11200,-0.28000
,,,-0.00202600006,0.11200,-0.28000
,,,-0.00202580006,0.12000,-0.28000
,,,-0.00202560006,0.11200,-0.28000
,,,-0.00202540006,0.12000,-0.28000
,,,-0.00202520005,0.11200,-0.27200
,,,-0.00202500005,0.11200,-0.28000
,,,-0.00202480005,0.12000,-0.28000
,,,-0.00202460005,0.12000,-0.28000
,,,-0.00202440005,0.12000,-0.28000
,,,-0.00202420005,0.12000,-0.27200
,,,-0.00202400004,0.11200,-0.28000
,,,-0.00202380004,0.12000,-0.27200
,,,-0.00202360004,0.12000,-0.28000
,,,-0.00202340004,0.11200,-0.28000
,,,-0.00202320004,0.11200,-0.28000
,,,-0.00202300004,0.12000,-0.28000
,,,-0.00202280004,0.11200,-0.28000
,,,-0.00202260003,0.12000,-0.28000
,,,-0.00202240003,0.11200,-0.28000
,,,-0.00202220003,0.12000,-0.28000
,,,-0.00202200003,0.12000,-0.28800
,,,-0.00202180003,0.12000,-0.28000
,,,-0.00202160003,0.12000,-0.28000
,,,-0.00202140003,0.11200,-0.28000
,,,-0.00202120002,0.12000,-0.28800
,,,-0.00202100002,0.12000,-0.28000
,,,-0.00202080002,0.11200,-0.28000
,,,-0.00202060002,0.12000,-0.28000
,,,-0.00202040002,0.12000,-0.28000
,,,-0.00202020002,0.11200,-0.28000
,,,-0.00202000001,0.12000,-0.28800
,,,-0.00201980001,0.12000,-0.28000
,,,-0.00201960001,0.12000,-0.28800
,,,-0.00201940001,0.12000,-0.28800
,,,-0.00201920001,0.12000,-0.28000
,,,-0.00201900001,0.12000,-0.28800
,,,-0.00201880001,0.12000,-0.28800
,,,-0.00201860000,0.12000,-0.28000
,,,-0.00201840000,0.12000,-0.28000
,,,-0.00201820000,0.12000,-0.28800
,,,-0.00201800000,0.12000,-0.28000
,,,-0.00201780000,0.12000,-0.28000
,,,-0.00201760000,0.12000,-0.28800
,,,-0.00201739999,0.12000,-0.28800
,,,-0.00201719999,0.12000,-0.28000
,,,-0.00201699999,0.13600,-0.28000
,,,-0.00201679999,0.12000,-0.28000
,,,-0.00201659999,0.12000,-0.28800
,,,-0.00201639999,0.12000,-0.28000
,,,-0.00201619999,0.12000,-0.28000
,,,-0.00201599998,0.13600,-0.28000
,,,-0.00201579998,0.12000,-0.28000
,,,-0.00201559998,0.12000,-0.28000
,,,-0.00201539998,0.12800,-0.28800
,,,-0.00201519998,0.12800,-0.28000
,,,-0.00201499998,0.12000,-0.28000
,,,-0.00201479997,0.12000,-0.28800
,,,-0.00201459997,0.12000,-0.28800
,,,-0.00201439997,0.12000,-0.28000
,,,-0.00201419997,0.12000,-0.28800
,,,-0.00201399997,0.12800,-0.28800
,,,-0.00201379997,0.12000,-0.28800
,,,-0.00201359997,0.12800,-0.28000
,,,-0.00201339996,0.13600,-0.28800
,,,-0.00201319996,0.12800,-0.28000
,,,-0.00201299996,0.13600,-0.28000
,,,-0.00201279996,0.12800,-0.28000
,,,-0.00201259996,0.12800,-0.28000
,,,-0.00201239996,0.13600,-0.28000
,,,-0.00201219996,0.12000,-0.28000
,,,-0.00201199995,0.12000,-0.28800
,,,-0.00201179995,0.13600,-0.28800
,,,-0.00201159995,0.12800,-0.28000
,,,-0.00201139995,0.13600,-0.28800
,,,-0.00201119995,0.13600,-0.28000
,,,-0.00201099995,0.13600,-0.28800
,,,-0.00201079994,0.13600,-0.28000
,,,-0.00201059994,0.13600,-0.28800
,,,-0.00201039994,0.12000,-0.28000
,,,-0.00201019994,0.13600,-0.28800
,,,-0.00200999994,0.13600,-0.28000
,,,-0.00200979994,0.13600,-0.28000
,,,-0.00200959994,0.12000,-0.28800
,,,-0.00200939993,0.13600,-0.28800
,,,-0.00200919993,0.13600,-0.28000
,,,-0.00200899993,0.13600,-0.28800
,,,-0.00200879993,0.13600,-0.28800
,,,-0.00200859993,0.13600,-0.28000
,,,-0.00200839993,0.13600,-0.28800
,,,-0.00200819992,0.13600,-0.28000
,,,-0.00200799992,0.13600,-0.28800
,,,-0.00200779992,0.13600,-0.28800
,,,-0.00200759992,0.13600,-0.28800
,,,-0.00200739992,0.13600,-0.28800
,,,-0.00200719992,0.13600,-0.28800
,,,-0.00200699992,0.13600,-0.28000
,,,-0.00200679991,0.13600,-0.28000
,,,-0.00200659991,0.13600,-0.28000
,,,-0.00200639991,0.13600,-0.28000
,,,-0.00200619991,0.13600,-0.28800
,,,-0.00200599991,0.13600,-0.28800
,,,-0.00200580014,0.14400,-0.28800
,,,-0.00200560014,0.13600,-0.28800
,,,-0.00200540014,0.13600,-0.28000
,,,-0.00200520013,0.13600,-0.28000
,,,-0.00200500013,0.13600,-0.28000
,,,-0.00200480013,0.13600,-0.28000
,,,-0.00200460013,0.13600,-0.28800
,,,-0.00200440013,0.14400,-0.28800
,,,-0.00200420013,0.14400,-0.28800
,,,-0.00200400013,0.13600,-0.28800
,,,-0.00200380012,0.13600,-0.28800
,,,-0.00200360012,0.13600,-0.28800
,,,-0.00200340012,0.13600,-0.28800
,,,-0.00200320012,0.13600,-0.28800
,,,-0.00200300012,0.13600,-0.28000
,,,-0.00200280012,0.14400,-0.28800
,,,-0.00200260011,0.14400,-0.28800
,,,-0.00200240011,0.13600,-0.28800
,,,-0.00200220011,0.13600,-0.28800
,,,-0.00200200011,0.14400,-0.28800
,,,-0.00200180011,0.14400,-0.28800
,,,-0.00200160011,0.13600,-0.28800
,,,-0.00200140011,0.14400,-0.28800
,,,-0.00200120010,0.14400,-0.28800
,,,-0.00200100010,0.14400,-0.28800
,,,-0.00200080010,0.14400,-0.28800
,,,-0.00200060010,0.14400,-0.28800
,,,-0.00200040010,0.14400,-0.28000
,,,-0.00200020010,0.14400,-0.28800
,,,-0.00200000009,0.14400,-0.28800
,,,-0.00199980009,0.14400,-0.28800
,,,-0.00199960009,0.14400,-0.28000
,,,-0.00199940009,0.14400,-0.28800
,,,-0.00199920009,0.14400,-0.28800
,,,-0.00199900009,0.14400,-0.28800
,,,-0.00199880009,0.14400,-0.28800
,,,-0.00199860008,0.14400,-0.28800
,,,-0.00199840008,0.14400,-0.28000
,,,-0.00199820008,0.14400,-0.28800
,,,-0.00199800008,0.14400,-0.28800
,,,-0.00199780008,0.14400,-0.28800
,,,-0.00199760008,0.14400,-0.28800
,,,-0.00199740008,0.14400,-0.28800
,,,-0.00199720007,0.14400,-0.28800
,,,-0.00199700007,0.14400,-0.28800
,,,-0.00199680007,0.14400,-0.28800
,,,-0.00199660007,0.14400,-0.28800
,,,-0.00199640007,0.14400,-0.28800
,,,-0.00199620007,0.14400,-0.28800
,,,-0.00199600006,0.14400,-0.28800
,,,-0.00199580006,0.14400,-0.28800
,,,-0.00199560006,0.14400,-0.28000
,,,-0.00199540006,0.14400,-0.28000
,,,-0.00199520006,0.14400,-0.28800
,,,-0.00199500006,0.14400,-0.28800
,,,-0.00199480006,0.14400,-0.28800
,,,-0.00199460005,0.14400,-0.28800
,,,-0.00199440005,0.14400,-0.28800
,,,-0.00199420005,0.14400,-0.28800
,,,-0.00199400005,0.14400,-0.28800
,,,-0.00199380005,0.14400,-0.28800
,,,-0.00199360005,0.14400,-0.28800
,,,-0.00199340004,0.14400,-0.28800
,,,-0.00199320004,0.14400,-0.28800
,,,-0.00199300004,0.14400,-0.28800
,,,-0.00199280004,0.14400,-0.28000
,,,-0.00199260004,0.14400,-0.28800
,,,-0.00199240004,0.14400,-0.28800
,,,-0.00199220004,0.14400,-0.28800
,,,-0.00199200003,0.14400,-0.28800
,,,-0.00199180003,0.14400,-0.28800
,,,-0.00199160003,0.14400,-0.28800
,,,-0.00199140003,0.14400,-0.28800
,,,-0.00199120003,0.14400,-0.28800
,,,-0.00199100003,0.14400,-0.28800
,,,-0.00199080002,0.14400,-0.28800
,,,-0.00199060002,0.14400,-0.28800
,,,-0.00199040002,0.14400,-0.28800
,,,-0.00199020002,0.15200,-0.28800
,,,-0.00199000002,0.14400,-0.28800
,,,-0.00198980002,0.15200,-0.28000
,,,-0.00198960002,0.15200,-0.28800
,,,-0.00198940001,0.14400,-0.28800
,,,-0.00198920001,0.14400,-0.28800
,,,-0.00198900001,0.15200,-0.28800
,,,-0.00198880001,0.15200,-0.28800
,,,-0.00198860001,0.14400,-0.28800
,,,-0.00198840001,0.14400,-0.28800
,,,-0.00198820001,0.14400,-0.28800
,,,-0.00198800000,0.14400,-0.28800
,,,-0.00198780000,0.14400,-0.28800
,,,-0.00198760000,0.14400,-0.28800
,,,-0.00198740000,0.15200,-0.28800
,,,-0.00198720000,0.15200,-0.28000
,,,-0.00198700000,0.14400,-0.28800
,,,-0.00198679999,0.15200,-0.28800
,,,-0.00198659999,0.15200,-0.28800
,,,-0.00198639999,0.15200,-0.28800
,,,-0.00198619999,0.15200,-0.28800
,,,-0.00198599999,0.15200,-0.28800
,,,-0.00198579999,0.15200,-0.28800
,,,-0.00198559999,0.15200,-0.28800
,,,-0.00198539998,0.15200,-0.28800
,,,-0.00198519998,0.15200,-0.28800
,,,-0.00198499998,0.15200,-0.28800
,,,-0.00198479998,0.14400,-0.28800
,,,-0.00198459998,0.15200,-0.28800
,,,-0.00198439998,0.15200,-0.28800
,,,-0.00198419997,0.15200,-0.28800
,,,-0.00198399997,0.15200,-0.28800
,,,-0.00198379997,0.15200,-0.28800
,,,-0.00198359997,0.15200,-0.28800
,,,-0.00198339997,0.15200,-0.28800
,,,-0.00198319997,0.15200,-0.28800
,,,-0.00198299997,0.15200,-0.28800
,,,-0.00198279996,0.15200,-0.28800
,,,-0.00198259996,0.15200,-0.28800
,,,-0.00198239996,0.15200,-0.28800
,,,-0.00198219996,0.15200,-0.28800
,,,-0.00198199996,0.15200,-0.28800
,,,-0.00198179996,0.15200,-0.28800
,,,-0.00198159995,0.15200,-0.28800
,,,-0.00198139995,0.15200,-0.28800
,,,-0.00198119995,0.15200,-0.28800
,,,-0.00198099995,0.15200,-0.28800
,,,-0.00198079995,0.15200,-0.28800
,,,-0.00198059995,0.15200,-0.28800
,,,-0.00198039995,0.15200,-0.28800
,,,-0.00198019994,0.15200,-0.28800
,,,-0.00197999994,0.15200,-0.28800
,,,-0.00197979994,0.15200,-0.28800
,,,-0.00197959994,0.15200,-0.28800
,,,-0.00197939994,0.15200,-0.28800
,,,-0.00197919994,0.15200,-0.28800
,,,-0.00197899994,0.15200,-0.28800
,,,-0.00197879993,0.15200,-0.28800
,,,-0.00197859993,0.15200,-0.28800
,,,-0.00197839993,0.15200,-0.28800
,,,-0.00197819993,0.15200,-0.28800
,,,-0.00197799993,0.15200,-0.28800
,,,-0.00197779993,0.15200,-0.28800
,,,-0.00197759992,0.15200,-0.28800
,,,-0.00197739992,0.15200,-0.28800
,,,-0.00197719992,0.15200,-0.28800
,,,-0.00197699992,0.15200,-0.28800
,,,-0.00197679992,0.15200,-0.28800
,,,-0.00197659992,0.16000,-0.28800
,,,-0.00197639992,0.16000,-0.28800
,,,-0.00197619991,0.15200,-0.28800
,,,-0.00197599991,0.15200,-0.28800
,,,-0.00197579991,0.14400,-0.28800
,,,-0.00197559991,0.15200,-0.28800
,,,-0.00197539991,0.15200,-0.28800
,,,-0.00197520014,0.15200,-0.28800
,,,-0.00197500014,0.16000,-0.28800
,,,-0.00197480014,0.16000,-0.28800
,,,-0.00197460013,0.16800,-0.28800
,,,-0.00197440013,0.16000,-0.28800
,,,-0.00197420013,0.16000,-0.28800
,,,-0.00197400013,0.16800,-0.28800
,,,-0.00197380013,0.16000,-0.28800
,,,-0.00197360013,0.16000,-0.28800
,,,-0.00197340013,0.16800,-0.28800
,,,-0.00197320012,0.15200,-0.28800
,,,-0.00197300012,0.15200,-0.28800
,,,-0.00197280012,0.15200,-0.28800
,,,-0.00197260012,0.16000,-0.28800
,,,-0.00197240012,0.16000,-0.28800
,,,-0.00197220012,0.16800,-0.28800
,,,-0.00197200011,0.16800,-0.28800
,,,-0.00197180011,0.16800,-0.28800
,,,-0.00197160011,0.16800,-0.28800
,,,-0.00197140011,0.16000,-0.28800
,,,-0.00197120011,0.15200,-0.29600
,,,-0.00197100011,0.15200,-0.28800
,,,-0.00197080011,0.16800,-0.28800
,,,-0.00197060010,0.16800,-0.28800
,,,-0.00197040010,0.16800,-0.29600
,,,-0.00197020010,0.16000,-0.29600
,,,-0.00197000010,0.16800,-0.28800
,,,-0.00196980010,0.16000,-0.28800
,,,-0.00196960010,0.16800,-0.28800
,,,-0.00196940009,0.16800,-0.28800
,,,-0.00196920009,0.16800,-0.28800
,,,-0.00196900009,0.16000,-0.28800
,,,-0.00196880009,0.16800,-0.28800
,,,-0.00196860009,0.16800,-0.28800
,,,-0.00196840009,0.16800,-0.28800
,,,-0.00196820009,0.16800,-0.28800
,,,-0.00196800008,0.16800,-0.28800
,,,-0.00196780008,0.16800,-0.28800
,,,-0.00196760008,0.16800,-0.28800
,,,-0.00196740008,0.16000,-0.28800
,,,-0.00196720008,0.16800,-0.29600
,,,-0.00196700008,0.16800,-0.28800
,,,-0.00196680008,0.16800,-0.28800
,,,-0.00196660007,0.16800,-0.28800
,,,-0.00196640007,0.16800,-0.28800
,,,-0.00196620007,0.16800,-0.28800
,,,-0.00196600007,0.16800,-0.28800
,,,-0.00196580007,0.16800,-0.28800
,,,-0.00196560007,0.16800,-0.28800
,,,-0.00196540006,0.16800,-0.28800
,,,-0.00196520006,0.16800,-0.28800
,,,-0.00196500006,0.16800,-0.28800
,,,-0.00196480006,0.16800,-0.28800
,,,-0.00196460006,0.16800,-0.28800
,,,-0.00196440006,0.16800,-0.28800
,,,-0.00196420006,0.16800,-0.28800
,,,-0.00196400005,0.16800,-0.28800
,,,-0.00196380005,0.16800,-0.28800
,,,-0.00196360005,0.16000,-0.28800
,,,-0.00196340005,0.16800,-0.28800
,,,-0.00196320005,0.16800,-0.28800
,,,-0.00196300005,0.16800,-0.28800
,,,-0.00196280004,0.16800,-0.28800
,,,-0.00196260004,0.16800,-0.28800
,,,-0.00196240004,0.16800,-0.28800
,,,-0.00196220004,0.16800,-0.28800
,,,-0.00196200004,0.16800,-0.29600
,,,-0.00196180004,0.16800,-0.28800
,,,-0.00196160004,0.17600,-0.28800
,,,-0.00196140003,0.17600,-0.29600
,,,-0.00196120003,0.16800,-0.28800
,,,-0.00196100003,0.16800,-0.28800
,,,-0.00196080003,0.17600,-0.28800
,,,-0.00196060003,0.16800,-0.28800
,,,-0.00196040003,0.16800,-0.28800
,,,-0.00196020002,0.16800,-0.28800
,,,-0.00196000002,0.16800,-0.28800
,,,-0.00195980002,0.16800,-0.28800
,,,-0.00195960002,0.16800,-0.28800
,,,-0.00195940002,0.16800,-0.28800
,,,-0.00195920002,0.16800,-0.28800
,,,-0.00195900002,0.17600,-0.28800
,,,-0.00195880001,0.16800,-0.28800
,,,-0.00195860001,0.17600,-0.28800
,,,-0.00195840001,0.17600,-0.28800
,,,-0.00195820001,0.17600,-0.28800
,,,-0.00195800001,0.17600,-0.28800
,,,-0.00195780001,0.16800,-0.28800
,,,-0.00195760000,0.16800,-0.28800
,,,-0.00195740000,0.16800,-0.29600
,,,-0.00195720000,0.16800,-0.28800
,,,-0.00195700000,0.16800,-0.28800
,,,-0.00195680000,0.17600,-0.28800
,,,-0.00195660000,0.16800,-0.29600
,,,-0.00195640000,0.17600,-0.28800
,,,-0.00195619999,0.17600,-0.28800
,,,-0.00195599999,0.17600,-0.28800
,,,-0.00195579999,0.16800,-0.28800
,,,-0.00195559999,0.16800,-0.28800
,,,-0.00195539999,0.17600,-0.29600
,,,-0.00195519999,0.17600,-0.28800
,,,-0.00195499999,0.16800,-0.29600
,,,-0.00195479998,0.16800,-0.28800
,,,-0.00195459998,0.17600,-0.28800
,,,-0.00195439998,0.17600,-0.28800
,,,-0.00195419998,0.16800,-0.28800
,,,-0.00195399998,0.17600,-0.28800
,,,-0.00195379998,0.17600,-0.29600
,,,-0.00195359997,0.17600,-0.28800
,,,-0.00195339997,0.17600,-0.29600
,,,-0.00195319997,0.17600,-0.28800
,,,-0.00195299997,0.17600,-0.28800
,,,-0.00195279997,0.17600,-0.28800
,,,-0.00195259997,0.17600,-0.28800
,,,-0.00195239997,0.17600,-0.28800
,,,-0.00195220008,0.17600,-0.28800
,,,-0.00195200008,0.17600,-0.28800
,,,-0.00195180008,0.17600,-0.28800
,,,-0.00195160008,0.17600,-0.28800
,,,-0.00195140007,0.17600,-0.28800
,,,-0.00195120007,0.16800,-0.28800
,,,-0.00195100007,0.17600,-0.28800
,,,-0.00195080007,0.17600,-0.28800
,,,-0.00195060007,0.17600,-0.28800
,,,-0.00195040007,0.17600,-0.28800
,,,-0.00195020007,0.17600,-0.28800
,,,-0.00195000006,0.17600,-0.28800
,,,-0.00194980006,0.17600,-0.28800
,,,-0.00194960006,0.17600,-0.28800
,,,-0.00194940006,0.17600,-0.28800
,,,-0.00194920006,0.17600,-0.28800
,,,-0.00194900006,0.17600,-0.28800
,,,-0.00194880005,0.17600,-0.28800
,,,-0.00194860005,0.17600,-0.28800
,,,-0.00194840005,0.17600,-0.28800
,,,-0.00194820005,0.17600,-0.28800
,,,-0.00194800005,0.17600,-0.29600
,,,-0.00194780005,0.17600,-0.29600
,,,-0.00194760005,0.17600,-0.28800
,,,-0.00194740004,0.17600,-0.28800
,,,-0.00194720004,0.17600,-0.28800
,,,-0.00194700004,0.17600,-0.28800
,,,-0.00194680004,0.17600,-0.28800
,,,-0.00194660004,0.17600,-0.28800
,,,-0.00194640004,0.17600,-0.28800
,,,-0.00194620003,0.17600,-0.28800
,,,-0.00194600003,0.17600,-0.29600
,,,-0.00194580003,0.17600,-0.28800
,,,-0.00194560003,0.17600,-0.28800
,,,-0.00194540003,0.17600,-0.28800
,,,-0.00194520003,0.17600,-0.29600
,,,-0.00194500003,0.17600,-0.28800
,,,-0.00194480002,0.17600,-0.28800
,,,-0.00194460002,0.17600,-0.28800
,,,-0.00194440002,0.17600,-0.29600
,,,-0.00194420002,0.17600,-0.28800
,,,-0.00194400002,0.17600,-0.28800
,,,-0.00194380002,0.17600,-0.29600
,,,-0.00194360001,0.17600,-0.28800
,,,-0.00194340001,0.17600,-0.28800
,,,-0.00194320001,0.17600,-0.28800
,,,-0.00194300001,0.17600,-0.28800
,,,-0.00194280001,0.17600,-0.28800
,,,-0.00194260001,0.17600,-0.29600
,,,-0.00194240001,0.17600,-0.28800
,,,-0.00194220000,0.17600,-0.28800
,,,-0.00194200000,0.17600,-0.28800
,,,-0.00194180000,0.17600,-0.28800
,,,-0.00194160000,0.17600,-0.28800
,,,-0.00194140000,0.17600,-0.29600
,,,-0.00194120000,0.17600,-0.28800
,,,-0.00194099999,0.17600,-0.28800
,,,-0.00194079999,0.17600,-0.29600
,,,-0.00194059999,0.17600,-0.28800
,,,-0.00194039999,0.17600,-0.28800
,,,-0.00194019999,0.17600,-0.28800
,,,-0.00193999999,0.17600,-0.28800
,,,-0.00193979999,0.17600,-0.28800
,,,-0.00193959998,0.17600,-0.28800
,,,-0.00193939998,0.17600,-0.29600
,,,-0.00193919998,0.17600,-0.29600
,,,-0.00193899998,0.17600,-0.28800
,,,-0.00193879998,0.17600,-0.28800
,,,-0.00193859998,0.17600,-0.29600
,,,-0.00193839998,0.17600,-0.29600
,,,-0.00193819997,0.17600,-0.28800
,,,-0.00193799997,0.17600,-0.28800
,,,-0.00193779997,0.17600,-0.29600
,,,-0.00193759997,0.18400,-0.29600
,,,-0.00193739997,0.17600,-0.28800
,,,-0.00193719997,0.17600,-0.29600
,,,-0.00193699996,0.17600,-0.29600
,,,-0.00193680008,0.17600,-0.28800
,,,-0.00193660008,0.18400,-0.29600
,,,-0.00193640008,0.17600,-0.28800
,,,-0.00193620007,0.17600,-0.29600
,,,-0.00193600007,0.17600,-0.28800
,,,-0.00193580007,0.17600,-0.28800
