Circuitos/TL1/scripts_y_recursos/datos/SDS00002.CSV

Record Length,20480,,Source,CH1,CH2
Sample Interval,CH1:0.0000008000000 CH2:0.0000008000000,,Second,Volt,Volt
Vertical Units,CH1:V CH2:V,,-0.00819199998,-0.16800,1.76000
Vertical Scale,CH1:0.20 CH2:1.00,,-0.00819119997,-0.16000,1.76000
Vertical Offset,CH1:0.00 CH2:0.00,,-0.00819039997,-0.16800,1.80000
Horizontal Units,s,,-0.00818959996,-0.16800,1.76000
Horizontal Scale,0.0005000000,,-0.00818879995,-0.16800,1.76000
Model Number,SDS1072CML+,,-0.00818799995,-0.16800,1.80000
Serial Number,SDS10BA3163350,,-0.00818719994,-0.17600,1.80000
Software Version,6.01.01.16,,-0.00818639994,-0.16800,1.80000
,,,-0.00818559993,-0.16800,1.80000
,,,-0.00818479992,-0.16800,1.80000
,,,-0.00818399992,-0.18400,1.80000
,,,-0.00818319991,-0.16800,1.80000
,,,-0.00818239991,-0.16800,1.80000
,,,-0.00818159990,-0.18400,1.80000
,,,-0.00818079989,-0.17600,1.84000
,,,-0.00817999989,-0.17600,1.84000
,,,-0.00817919988,-0.17600,1.84000
,,,-0.00817839988,-0.17600,1.84000
,,,-0.00817759987,-0.18400,1.84000
,,,-0.00817679986,-0.16800,1.84000
,,,-0.00817599986,-0.17600,1.84000
,,,-0.00817519985,-0.17600,1.84000
,,,-0.00817439985,-0.18400,1.88000
,,,-0.00817359984,-0.18400,1.84000
,,,-0.00817279983,-0.16800,1.88000
,,,-0.00817199983,-0.18400,1.88000
,,,-0.00817119982,-0.18400,1.88000
,,,-0.00817039981,-0.18400,1.88000
,,,-0.00816959981,-0.18400,1.88000
,,,-0.00816879980,-0.18400,1.88000
,,,-0.00816799980,-0.18400,1.84000
,,,-0.00816719979,-0.18400,1.88000
,,,-0.00816639978,-0.18400,1.88000
,,,-0.00816559978,-0.18400,1.88000
,,,-0.00816479977,-0.18400,1.88000
,,,-0.00816399977,-0.18400,1.88000
,,,-0.00816319976,-0.18400,1.92000
,,,-0.00816239975,-0.18400,1.88000
,,,-0.00816159975,-0.18400,1.88000
,,,-0.00816079974,-0.18400,1.92000
,,,-0.00815999974,-0.18400,1.92000
,,,-0.00815919973,-0.18400,1.92000
,,,-0.00815839972,-0.18400,1.92000
,,,-0.00815759972,-0.18400,1.92000
,,,-0.00815679971,-0.18400,1.92000
,,,-0.00815599971,-0.18400,1.92000
,,,-0.00815519970,-0.18400,1.92000
,,,-0.00815439969,-0.18400,1.92000
,,,-0.00815359969,-0.18400,1.92000
,,,-0.00815279968,-0.19200,1.96000
,,,-0.00815199967,-0.18400,1.92000
,,,-0.00815119967,-0.18400,1.96000
,,,-0.00815039966,-0.18400,1.92000
,,,-0.00814959966,-0.18400,1.96000
,,,-0.00814879965,-0.19200,1.96000
,,,-0.00814799964,-0.19200,1.96000
,,,-0.00814719964,-0.18400,1.92000
,,,-0.00814639963,-0.19200,1.96000
,,,-0.00814560056,-0.18400,1.96000
,,,-0.00814480055,-0.19200,1.96000
,,,-0.00814400055,-0.19200,1.96000
,,,-0.00814320054,-0.19200,1.96000
,,,-0.00814240053,-0.19200,2.00000
,,,-0.00814160053,-0.19200,1.96000
,,,-0.00814080052,-0.18400,2.00000
,,,-0.00814000051,-0.19200,1.96000
,,,-0.00813920051,-0.19200,1.96000
,,,-0.00813840050,-0.19200,1.96000
,,,-0.00813760050,-0.18400,1.96000
,,,-0.00813680049,-0.19200,1.96000
,,,-0.00813600048,-0.19200,1.96000
,,,-0.00813520048,-0.19200,2.00000
,,,-0.00813440047,-0.19200,2.00000
,,,-0.00813360047,-0.19200,1.96000
,,,-0.00813280046,-0.19200,2.00000
,,,-0.00813200045,-0.19200,1.96000
,,,-0.00813120045,-0.18400,1.96000
,,,-0.00813040044,-0.19200,2.00000
,,,-0.00812960044,-0.19200,1.96000
,,,-0.00812880043,-0.19200,1.96000
,,,-0.00812800042,-0.19200,2.00000
,,,-0.00812720042,-0.18400,1.96000
,,,-0.00812640041,-0.19200,2.00000
,,,-0.00812560041,-0.19200,2.00000
,,,-0.00812480040,-0.19200,2.00000
,,,-0.00812400039,-0.19200,2.00000
,,,-0.00812320039,-0.19200,2.00000
,,,-0.00812240038,-0.19200,2.00000
,,,-0.00812160037,-0.19200,2.00000
,,,-0.00812080037,-0.19200,1.96000
,,,-0.00812000036,-0.19200,2.00000
,,,-0.00811920036,-0.19200,2.00000
,,,-0.00811840035,-0.19200,2.00000
,,,-0.00811760034,-0.19200,2.00000
,,,-0.00811680034,-0.19200,2.00000
,,,-0.00811600033,-0.19200,2.00000
,,,-0.00811520033,-0.19200,2.00000
,,,-0.00811440032,-0.19200,2.00000
,,,-0.00811360031,-0.19200,2.00000
,,,-0.00811280031,-0.19200,2.00000
,,,-0.00811200030,-0.19200,2.00000
,,,-0.00811120030,-0.19200,2.00000
,,,-0.00811040029,-0.19200,2.00000
,,,-0.00810960028,-0.19200,2.00000
,,,-0.00810880028,-0.19200,2.00000
,,,-0.00810800027,-0.19200,2.00000
,,,-0.00810720026,-0.19200,2.00000
,,,-0.00810640026,-0.19200,2.00000
,,,-0.00810560025,-0.19200,2.00000
,,,-0.00810480025,-0.19200,2.00000
,,,-0.00810400024,-0.19200,2.00000
,,,-0.00810320023,-0.19200,2.00000
,,,-0.00810240023,-0.18400,2.00000
,,,-0.00810160022,-0.19200,2.00000
,,,-0.00810080022,-0.19200,2.00000
,,,-0.00810000021,-0.19200,2.00000
,,,-0.00809920020,-0.19200,2.00000
,,,-0.00809840020,-0.19200,2.00000
,,,-0.00809760019,-0.19200,2.00000
,,,-0.00809680019,-0.19200,2.00000
,,,-0.00809600018,-0.19200,2.00000
,,,-0.00809520017,-0.19200,1.96000
,,,-0.00809440017,-0.19200,2.00000
,,,-0.00809360016,-0.19200,2.00000
,,,-0.00809280016,-0.19200,1.96000
,,,-0.00809200015,-0.19200,1.96000
,,,-0.00809120014,-0.18400,2.00000
,,,-0.00809040014,-0.19200,1.96000
,,,-0.00808960013,-0.19200,1.96000
,,,-0.00808880012,-0.18400,1.96000
,,,-0.00808800012,-0.19200,2.00000
,,,-0.00808720011,-0.19200,2.00000
,,,-0.00808640011,-0.19200,2.00000
,,,-0.00808560010,-0.19200,2.00000
,,,-0.00808480009,-0.19200,1.96000
,,,-0.00808400009,-0.19200,1.96000
,,,-0.00808320008,-0.19200,1.96000
,,,-0.00808240008,-0.18400,1.96000
,,,-0.00808160007,-0.19200,1.96000
,,,-0.00808080006,-0.18400,1.96000
,,,-0.00808000006,-0.19200,1.96000
,,,-0.00807920005,-0.19200,1.96000
,,,-0.00807840005,-0.18400,1.96000
,,,-0.00807760004,-0.18400,1.96000
,,,-0.00807680003,-0.18400,1.96000
,,,-0.00807600003,-0.18400,1.96000
,,,-0.00807520002,-0.18400,1.96000
,,,-0.00807440002,-0.18400,1.96000
,,,-0.00807360001,-0.18400,1.96000
,,,-0.00807280000,-0.18400,1.96000
,,,-0.00807200000,-0.18400,1.92000
,,,-0.00807119999,-0.18400,1.92000
,,,-0.00807039998,-0.18400,1.96000
,,,-0.00806959998,-0.18400,1.92000
,,,-0.00806879997,-0.18400,1.92000
,,,-0.00806799997,-0.18400,1.92000
,,,-0.00806719996,-0.18400,1.92000
,,,-0.00806639995,-0.18400,1.92000
,,,-0.00806559995,-0.18400,1.92000
,,,-0.00806479994,-0.18400,1.92000
,,,-0.00806399994,-0.18400,1.92000
,,,-0.00806319993,-0.18400,1.92000
,,,-0.00806239992,-0.18400,1.92000
,,,-0.00806159992,-0.18400,1.92000
,,,-0.00806079991,-0.18400,1.92000
,,,-0.00805999991,-0.18400,1.88000
,,,-0.00805919990,-0.18400,1.92000
,,,-0.00805839989,-0.18400,1.92000
,,,-0.00805759989,-0.18400,1.88000
,,,-0.00805679988,-0.18400,1.88000
,,,-0.00805599988,-0.18400,1.88000
,,,-0.00805519987,-0.18400,1.88000
,,,-0.00805439986,-0.18400,1.88000
,,,-0.00805359986,-0.18400,1.88000
,,,-0.00805279985,-0.16800,1.88000
,,,-0.00805199984,-0.18400,1.88000
,,,-0.00805119984,-0.17600,1.88000
,,,-0.00805039983,-0.18400,1.88000
,,,-0.00804959983,-0.17600,1.84000
,,,-0.00804879982,-0.17600,1.84000
,,,-0.00804799981,-0.16800,1.84000
,,,-0.00804719981,-0.17600,1.84000
,,,-0.00804639980,-0.17600,1.84000
,,,-0.00804559980,-0.16800,1.84000
,,,-0.00804479979,-0.16800,1.84000
,,,-0.00804399978,-0.17600,1.84000
,,,-0.00804319978,-0.17600,1.80000
,,,-0.00804239977,-0.17600,1.84000
,,,-0.00804159977,-0.16800,1.80000
,,,-0.00804079976,-0.16800,1.80000
,,,-0.00803999975,-0.16800,1.80000
,,,-0.00803919975,-0.16800,1.80000
,,,-0.00803839974,-0.16800,1.80000
,,,-0.00803759973,-0.16800,1.84000
,,,-0.00803679973,-0.16800,1.80000
,,,-0.00803599972,-0.16800,1.80000
,,,-0.00803519972,-0.16000,1.76000
,,,-0.00803439971,-0.16800,1.80000
,,,-0.00803359970,-0.16800,1.76000
,,,-0.00803279970,-0.16800,1.76000
,,,-0.00803199969,-0.16000,1.76000
,,,-0.00803119969,-0.16000,1.76000
,,,-0.00803039968,-0.16000,1.76000
,,,-0.00802959967,-0.16000,1.76000
,,,-0.00802879967,-0.16000,1.76000
,,,-0.00802799966,-0.16000,1.76000
,,,-0.00802719966,-0.16000,1.72000
,,,-0.00802639965,-0.16000,1.72000
,,,-0.00802559964,-0.16000,1.72000
,,,-0.00802479964,-0.16800,1.72000
,,,-0.00802399963,-0.16000,1.72000
,,,-0.00802320056,-0.16000,1.68000
,,,-0.00802240055,-0.16000,1.68000
,,,-0.00802160054,-0.16000,1.68000
,,,-0.00802080054,-0.16000,1.68000
,,,-0.00802000053,-0.16000,1.64000
,,,-0.00801920053,-0.16000,1.68000
,,,-0.00801840052,-0.16000,1.68000
,,,-0.00801760051,-0.16000,1.64000
,,,-0.00801680051,-0.16000,1.64000
,,,-0.00801600050,-0.16000,1.64000
,,,-0.00801520050,-0.16000,1.64000
,,,-0.00801440049,-0.16000,1.64000
,,,-0.00801360048,-0.16000,1.60000
,,,-0.00801280048,-0.16000,1.64000
,,,-0.00801200047,-0.16000,1.64000
,,,-0.00801120047,-0.16000,1.60000
,,,-0.00801040046,-0.15200,1.60000
,,,-0.00800960045,-0.15200,1.60000
,,,-0.00800880045,-0.15200,1.60000
,,,-0.00800800044,-0.15200,1.60000
,,,-0.00800720043,-0.15200,1.56000
,,,-0.00800640043,-0.15200,1.56000
,,,-0.00800560042,-0.15200,1.56000
,,,-0.00800480042,-0.15200,1.56000
,,,-0.00800400041,-0.15200,1.56000
,,,-0.00800320040,-0.15200,1.56000
,,,-0.00800240040,-0.15200,1.52000
,,,-0.00800160039,-0.15200,1.52000
,,,-0.00800080039,-0.15200,1.52000
,,,-0.00800000038,-0.15200,1.52000
,,,-0.00799920037,-0.14400,1.52000
,,,-0.00799840037,-0.14400,1.52000
,,,-0.00799760036,-0.14400,1.48000
,,,-0.00799680036,-0.13600,1.52000
,,,-0.00799600035,-0.14400,1.48000
,,,-0.00799520034,-0.13600,1.48000
,,,-0.00799440034,-0.13600,1.44000
,,,-0.00799360033,-0.13600,1.48000
,,,-0.00799280033,-0.13600,1.44000
,,,-0.00799200032,-0.13600,1.44000
,,,-0.00799120031,-0.13600,1.44000
,,,-0.00799040031,-0.13600,1.44000
,,,-0.00798960030,-0.13600,1.44000
,,,-0.00798880029,-0.13600,1.40000
,,,-0.00798800029,-0.13600,1.40000
,,,-0.00798720028,-0.13600,1.40000
,,,-0.00798640028,-0.12800,1.40000
,,,-0.00798560027,-0.12800,1.36000
,,,-0.00798480026,-0.13600,1.36000
,,,-0.00798400026,-0.12800,1.40000
,,,-0.00798320025,-0.12800,1.36000
,,,-0.00798240025,-0.12800,1.36000
,,,-0.00798160024,-0.12800,1.36000
,,,-0.00798080023,-0.12800,1.36000
,,,-0.00798000023,-0.12800,1.32000
,,,-0.00797920022,-0.12800,1.32000
,,,-0.00797840022,-0.12800,1.32000
,,,-0.00797760021,-0.12800,1.32000
,,,-0.00797680020,-0.12800,1.28000
,,,-0.00797600020,-0.12800,1.32000
,,,-0.00797520019,-0.12800,1.28000
,,,-0.00797440019,-0.12800,1.28000
,,,-0.00797360018,-0.12800,1.28000
,,,-0.00797280017,-0.12000,1.28000
,,,-0.00797200017,-0.12000,1.28000
,,,-0.00797120016,-0.12000,1.28000
,,,-0.00797040015,-0.12000,1.28000
,,,-0.00796960015,-0.12000,1.24000
,,,-0.00796880014,-0.12000,1.24000
,,,-0.00796800014,-0.12000,1.20000
,,,-0.00796720013,-0.12000,1.20000
,,,-0.00796640012,-0.12000,1.20000
,,,-0.00796560012,-0.12000,1.20000
,,,-0.00796480011,-0.12000,1.20000
,,,-0.00796400011,-0.11200,1.16000
,,,-0.00796320010,-0.12000,1.20000
,,,-0.00796240009,-0.10400,1.20000
,,,-0.00796160009,-0.11200,1.16000
,,,-0.00796080008,-0.10400,1.16000
,,,-0.00796000008,-0.10400,1.16000
,,,-0.00795920007,-0.12000,1.16000
,,,-0.00795840006,-0.10400,1.16000
,,,-0.00795760006,-0.11200,1.12000
,,,-0.00795680005,-0.10400,1.12000
,,,-0.00795600004,-0.10400,1.12000
,,,-0.00795520004,-0.10400,1.12000
,,,-0.00795440003,-0.10400,1.08000
,,,-0.00795360003,-0.10400,1.08000
,,,-0.00795280002,-0.10400,1.08000
,,,-0.00795200001,-0.09600,1.08000
,,,-0.00795120001,-0.09600,1.04000
,,,-0.00795040000,-0.09600,1.08000
,,,-0.00794960000,-0.09600,1.04000
,,,-0.00794879999,-0.09600,1.04000
,,,-0.00794799998,-0.09600,1.04000
,,,-0.00794719998,-0.09600,1.04000
,,,-0.00794639997,-0.09600,1.00000
,,,-0.00794559997,-0.09600,0.96000
,,,-0.00794479996,-0.09600,1.00000
,,,-0.00794399995,-0.09600,1.00000
,,,-0.00794319995,-0.09600,0.96000
,,,-0.00794239994,-0.08800,0.96000
,,,-0.00794159994,-0.08800,0.96000
,,,-0.00794079993,-0.08800,0.92000
,,,-0.00793999992,-0.08800,0.92000
,,,-0.00793919992,-0.08800,0.92000
,,,-0.00793839991,-0.08800,0.88000
,,,-0.00793759990,-0.08800,0.92000
,,,-0.00793679990,-0.08800,0.88000
,,,-0.00793599989,-0.08800,0.88000
,,,-0.00793519989,-0.08800,0.88000
,,,-0.00793439988,-0.08800,0.88000
,,,-0.00793359987,-0.08800,0.84000
,,,-0.00793279987,-0.08800,0.88000
,,,-0.00793199986,-0.07200,0.88000
,,,-0.00793119986,-0.08800,0.84000
,,,-0.00793039985,-0.06400,0.80000
,,,-0.00792959984,-0.07200,0.80000
,,,-0.00792879984,-0.07200,0.84000
,,,-0.00792799983,-0.06400,0.80000
,,,-0.00792719983,-0.06400,0.80000
,,,-0.00792639982,-0.06400,0.76000
,,,-0.00792559981,-0.06400,0.80000
,,,-0.00792479981,-0.05600,0.76000
,,,-0.00792399980,-0.05600,0.76000
,,,-0.00792319980,-0.06400,0.76000
,,,-0.00792239979,-0.06400,0.72000
,,,-0.00792159978,-0.06400,0.72000
,,,-0.00792079978,-0.05600,0.72000
,,,-0.00791999977,-0.05600,0.72000
,,,-0.00791919976,-0.05600,0.72000
,,,-0.00791839976,-0.05600,0.68000
,,,-0.00791759975,-0.05600,0.72000
,,,-0.00791679975,-0.05600,0.68000
,,,-0.00791599974,-0.05600,0.64000
,,,-0.00791519973,-0.05600,0.68000
,,,-0.00791439973,-0.05600,0.64000
,,,-0.00791359972,-0.05600,0.60000
,,,-0.00791279972,-0.05600,0.60000
,,,-0.00791199971,-0.05600,0.64000
,,,-0.00791119970,-0.04800,0.60000
,,,-0.00791039970,-0.04800,0.60000
,,,-0.00790959969,-0.04800,0.60000
,,,-0.00790879969,-0.04800,0.60000
,,,-0.00790799968,-0.04800,0.56000
,,,-0.00790719967,-0.04800,0.56000
,,,-0.00790639967,-0.04800,0.56000
,,,-0.00790559966,-0.04800,0.56000
,,,-0.00790479966,-0.04800,0.52000
,,,-0.00790399965,-0.04800,0.56000
,,,-0.00790319964,-0.04800,0.52000
,,,-0.00790239964,-0.04000,0.48000
,,,-0.00790159963,-0.04000,0.52000
,,,-0.00790080056,-0.03200,0.48000
,,,-0.00790000055,-0.03200,0.48000
,,,-0.00789920054,-0.03200,0.44000
,,,-0.00789840054,-0.03200,0.44000
,,,-0.00789760053,-0.03200,0.44000
,,,-0.00789680053,-0.03200,0.44000
,,,-0.00789600052,-0.02400,0.44000
,,,-0.00789520051,-0.02400,0.40000
,,,-0.00789440051,-0.02400,0.40000
,,,-0.00789360050,-0.03200,0.40000
,,,-0.00789280050,-0.02400,0.40000
,,,-0.00789200049,-0.03200,0.36000
,,,-0.00789120048,-0.02400,0.36000
,,,-0.00789040048,-0.02400,0.36000
,,,-0.00788960047,-0.02400,0.36000
,,,-0.00788880046,-0.02400,0.32000
,,,-0.00788800046,-0.02400,0.36000
,,,-0.00788720045,-0.02400,0.32000
,,,-0.00788640045,-0.02400,0.32000
,,,-0.00788560044,-0.02400,0.32000
,,,-0.00788480043,-0.02400,0.32000
,,,-0.00788400043,-0.02400,0.32000
,,,-0.00788320042,-0.01600,0.32000
,,,-0.00788240042,-0.02400,0.28000
,,,-0.00788160041,-0.01600,0.24000
,,,-0.00788080040,-0.01600,0.28000
,,,-0.00788000040,-0.01600,0.24000
,,,-0.00787920039,-0.01600,0.24000
,,,-0.00787840039,-0.01600,0.24000
,,,-0.00787760038,-0.01600,0.24000
,,,-0.00787680037,-0.01600,0.20000
,,,-0.00787600037,-0.01600,0.20000
,,,-0.00787520036,0.00,0.20000
,,,-0.00787440035,-0.00800,0.20000
,,,-0.00787360035,0.00,0.16000
,,,-0.00787280034,0.00,0.12000
,,,-0.00787200034,0.00,0.12000
,,,-0.00787120033,0.00,0.12000
,,,-0.00787040032,0.00,0.12000
,,,-0.00786960032,0.00,0.12000
,,,-0.00786880031,0.00,0.08000
,,,-0.00786800031,0.00,0.08000
,,,-0.00786720030,0.00800,0.08000
,,,-0.00786640029,0.00,0.08000
,,,-0.00786560029,0.00,0.04000
,,,-0.00786480028,0.00800,0.08000
,,,-0.00786400028,0.00800,0.04000
,,,-0.00786320027,0.00800,0.04000
,,,-0.00786240026,0.00800,0.04000
,,,-0.00786160026,0.00800,0.00
,,,-0.00786080025,0.00800,0.04000
,,,-0.00786000025,0.00800,0.00
,,,-0.00785920024,0.00800,0.00
,,,-0.00785840023,0.00800,-0.04000
,,,-0.00785760023,0.00800,0.00
,,,-0.00785680022,0.01600,-0.04000
,,,-0.00785600021,0.00800,-0.04000
,,,-0.00785520021,0.01600,-0.04000
,,,-0.00785440020,0.00800,-0.08000
,,,-0.00785360020,0.01600,-0.08000
,,,-0.00785280019,0.00800,-0.08000
,,,-0.00785200018,0.01600,-0.08000
,,,-0.00785120018,0.01600,-0.08000
,,,-0.00785040017,0.01600,-0.12000
,,,-0.00784960017,0.01600,-0.12000
,,,-0.00784880016,0.01600,-0.16000
,,,-0.00784800015,0.01600,-0.16000
,,,-0.00784720015,0.01600,-0.16000
,,,-0.00784640014,0.02400,-0.16000
,,,-0.00784560014,0.02400,-0.16000
,,,-0.00784480013,0.02400,-0.20000
,,,-0.00784400012,0.03200,-0.20000
,,,-0.00784320012,0.03200,-0.20000
,,,-0.00784240011,0.03200,-0.20000
,,,-0.00784160011,0.03200,-0.24000
,,,-0.00784080010,0.03200,-0.20000
,,,-0.00784000009,0.03200,-0.24000
,,,-0.00783920009,0.03200,-0.24000
,,,-0.00783840008,0.04000,-0.24000
,,,-0.00783760007,0.04000,-0.24000
,,,-0.00783680007,0.04000,-0.28000
,,,-0.00783600006,0.04000,-0.28000
,,,-0.00783520006,0.04000,-0.28000
,,,-0.00783440005,0.04000,-0.32000
,,,-0.00783360004,0.04000,-0.32000
,,,-0.00783280004,0.04000,-0.32000
,,,-0.00783200003,0.04000,-0.36000
,,,-0.00783120003,0.04000,-0.36000
,,,-0.00783040002,0.04000,-0.36000
,,,-0.00782960001,0.04000,-0.36000
,,,-0.00782880001,0.04000,-0.36000
,,,-0.00782800000,0.04800,-0.40000
,,,-0.00782720000,0.04800,-0.40000
,,,-0.00782639999,0.04800,-0.40000
,,,-0.00782559998,0.04800,-0.40000
,,,-0.00782479998,0.04800,-0.40000
,,,-0.00782399997,0.04800,-0.44000
,,,-0.00782319997,0.04800,-0.40000
,,,-0.00782239996,0.04800,-0.44000
,,,-0.00782159995,0.04800,-0.44000
,,,-0.00782079995,0.04800,-0.48000
,,,-0.00781999994,0.04800,-0.44000
,,,-0.00781919993,0.05600,-0.48000
,,,-0.00781839993,0.04800,-0.52000
,,,-0.00781759992,0.06400,-0.52000
,,,-0.00781679992,0.06400,-0.52000
,,,-0.00781599991,0.05600,-0.52000
,,,-0.00781519990,0.06400,-0.52000
,,,-0.00781439990,0.06400,-0.56000
,,,-0.00781359989,0.05600,-0.52000
,,,-0.00781279989,0.06400,-0.56000
,,,-0.00781199988,0.06400,-0.56000
,,,-0.00781119987,0.06400,-0.56000
,,,-0.00781039987,0.06400,-0.56000
,,,-0.00780959986,0.06400,-0.56000
,,,-0.00780880032,0.07200,-0.60000
,,,-0.00780800031,0.07200,-0.60000
,,,-0.00780720031,0.06400,-0.60000
,,,-0.00780640030,0.07200,-0.64000
,,,-0.00780560030,0.07200,-0.64000
,,,-0.00780480029,0.07200,-0.60000
,,,-0.00780400028,0.07200,-0.68000
,,,-0.00780320028,0.07200,-0.64000
,,,-0.00780240027,0.07200,-0.68000
,,,-0.00780160027,0.07200,-0.68000
,,,-0.00780080026,0.07200,-0.72000
,,,-0.00780000025,0.07200,-0.72000
,,,-0.00779920025,0.08800,-0.72000
,,,-0.00779840024,0.07200,-0.72000
,,,-0.00779760024,0.07200,-0.72000
,,,-0.00779680023,0.07200,-0.72000
,,,-0.00779600022,0.07200,-0.72000
,,,-0.00779520022,0.08800,-0.72000
,,,-0.00779440021,0.08800,-0.76000
,,,-0.00779360021,0.08800,-0.76000
,,,-0.00779280020,0.08800,-0.76000
,,,-0.00779200019,0.08800,-0.80000
,,,-0.00779120019,0.08800,-0.76000
,,,-0.00779040018,0.08800,-0.80000
,,,-0.00778960017,0.08800,-0.80000
,,,-0.00778880017,0.08800,-0.80000
,,,-0.00778800016,0.08800,-0.80000
,,,-0.00778720016,0.08800,-0.84000
,,,-0.00778640015,0.08800,-0.84000
,,,-0.00778560014,0.08800,-0.80000
,,,-0.00778480014,0.08800,-0.88000
,,,-0.00778400013,0.10400,-0.88000
,,,-0.00778320013,0.10400,-0.88000
,,,-0.00778240012,0.10400,-0.88000
,,,-0.00778160011,0.10400,-0.88000
,,,-0.00778080011,0.10400,-0.92000
,,,-0.00778000010,0.10400,-0.88000
,,,-0.00777920010,0.10400,-0.92000
,,,-0.00777840009,0.10400,-0.96000
,,,-0.00777760008,0.10400,-0.96000
,,,-0.00777680008,0.10400,-0.96000
,,,-0.00777600007,0.10400,-1.00000
,,,-0.00777520007,0.10400,-0.96000
,,,-0.00777440006,0.11200,-0.96000
,,,-0.00777360005,0.11200,-0.96000
,,,-0.00777280005,0.11200,-0.96000
,,,-0.00777200004,0.11200,-0.96000
,,,-0.00777120003,0.11200,-1.00000
,,,-0.00777040003,0.11200,-1.00000
,,,-0.00776960002,0.11200,-1.00000
,,,-0.00776880002,0.11200,-1.00000
,,,-0.00776800001,0.11200,-1.04000
,,,-0.00776720000,0.11200,-1.04000
,,,-0.00776640000,0.12000,-1.04000
,,,-0.00776559999,0.11200,-1.04000
,,,-0.00776479999,0.12000,-1.04000
,,,-0.00776399998,0.12000,-1.08000
,,,-0.00776319997,0.12000,-1.04000
,,,-0.00776239997,0.11200,-1.08000
,,,-0.00776159996,0.12000,-1.12000
,,,-0.00776079996,0.12000,-1.12000
,,,-0.00775999995,0.12000,-1.12000
,,,-0.00775919994,0.12000,-1.12000
,,,-0.00775839994,0.12000,-1.08000
,,,-0.00775759993,0.12000,-1.12000
,,,-0.00775679993,0.12800,-1.12000
,,,-0.00775599992,0.12800,-1.12000
,,,-0.00775519991,0.12000,-1.16000
,,,-0.00775439991,0.12000,-1.16000
,,,-0.00775359990,0.13600,-1.16000
,,,-0.00775279989,0.12800,-1.16000
,,,-0.00775199989,0.13600,-1.20000
,,,-0.00775119988,0.13600,-1.20000
,,,-0.00775039988,0.13600,-1.20000
,,,-0.00774959987,0.13600,-1.20000
,,,-0.00774879986,0.13600,-1.20000
,,,-0.00774799986,0.13600,-1.20000
,,,-0.00774720032,0.13600,-1.24000
,,,-0.00774640031,0.13600,-1.20000
,,,-0.00774560031,0.13600,-1.20000
,,,-0.00774480030,0.13600,-1.24000
,,,-0.00774400029,0.14400,-1.24000
,,,-0.00774320029,0.13600,-1.24000
,,,-0.00774240028,0.14400,-1.24000
,,,-0.00774160028,0.14400,-1.24000
